INDEX VERSION 1.131+C:\Users\ryanc\Revature\FullStack_Challenge\.metadata\.plugins\org.eclipse.jdt.core
3412444299.index
3703344105.index
4204064576.index
1992661212.index
2031800893.index
3255725415.index
3842109189.index
3280721068.index
855781063.index
1338149594.index
92039493.index
2021480056.index
1018927189.index
3671991075.index
1660718057.index
3628717815.index
1889968369.index
1784980816.index
3916337437.index
25271109.index
3572167305.index
2019384385.index
4170250737.index
3696704838.index
800554545.index
2619564473.index
2863521671.index
1534283293.index
798411572.index
3640030853.index
1741795946.index
3398626150.index
2381513551.index
1399994492.index
1897384966.index
2177817248.index
32442432.index
1320347462.index
3431774785.index
4162509646.index
3033407103.index
3573808707.index
3245669720.index
1783993541.index
3870284416.index
4037282088.index
2896881520.index
3503396323.index
1644844439.index
4214494979.index
181725338.index
4242691078.index
2605186675.index
2779513339.index
816844892.index
1654069926.index
3979879449.index
1504183145.index
3436085571.index
1989486015.index
3046718749.index
3262463181.index
404480292.index
2054981899.index
2978319787.index
2323520895.index
558588112.index
1718724833.index
30558988.index
893299155.index
1066601854.index
870252455.index
581896558.index
552780899.index
3307278183.index
225568835.index
1047727146.index
355984005.index
1985042852.index
3822970196.index
217546527.index
3418612788.index
1276300061.index
2483097792.index
3902155266.index
441124035.index
1216238876.index
1403319398.index
1378700057.index
657859249.index
133192201.index
501778127.index
1189427762.index
3395138752.index
313788345.index
3360012814.index
3483877209.index
1222839585.index
569811923.index
2238378109.index
3326538097.index
1926975424.index
3141230226.index
1890169655.index
1674495659.index
3107227312.index
2409692600.index
4223760262.index
3554601624.index
3258223671.index
1448825329.index
3319596495.index
73835822.index
4025046130.index
4024597823.index
3875168088.index
3327933108.index
1230723243.index
1435582988.index
4152070526.index
3851821173.index
2199367284.index
1608548799.index
1949229722.index
3286124080.index
1379212040.index
2419095499.index
241614509.index
2846153253.index
3442636431.index
3912022788.index
3685658751.index
2249666766.index
2988933579.index
2118510361.index
389129003.index
174835250.index
1226154064.index
4083113128.index
3453152485.index
933535081.index
4209092637.index
1839445678.index
188702522.index
1636554870.index
2202465735.index
1247147544.index
723115904.index
2029926986.index
1847547417.index
1740146854.index
1207462640.index
357885634.index
2211806794.index
3290160700.index
286996147.index
1323648264.index
12541990.index
670576244.index
3036526998.index
1217621626.index
1547171792.index
4209877997.index
1019483294.index
83547291.index
2414660907.index
3194893642.index
2473529865.index
1319446252.index
3803121939.index
2963426978.index
87652822.index
3376151328.index
3320675723.index
441451203.index
1839340674.index
3954825736.index
2923022803.index
22008487.index
1579264443.index
4195469229.index
1013231562.index
2974691912.index
3904310091.index
115384172.index
2605712961.index
1090395388.index
167695845.index
1508854722.index
1560528012.index
4290494477.index
2865595961.index
3310251376.index
1767853631.index
1489457989.index
402488237.index
1821483267.index
2767955106.index
1658528522.index
2934523476.index
289593968.index
903490196.index
4155245076.index
216465973.index
338641021.index
2993822971.index
2957355967.index
3403178076.index
42727842.index
278855305.index
615231158.index
1519621278.index
815859018.index
2195500955.index
1715118819.index
699310355.index
150096857.index
452484396.index
3262670050.index
191564938.index
2889717585.index
2217356653.index
3762703328.index
3655431118.index
1840175132.index
1052818764.index
2779194694.index
1231887178.index
1342054848.index
3373998481.index
3468062155.index
1415005261.index
1725078306.index
3972368463.index
3500754043.index
3052247998.index
3222951043.index
3730276645.index
3875243345.index
2968484692.index
2851669449.index
3928225923.index
876752130.index
3875714069.index
4145965085.index
2354251963.index
3146768520.index
2718303893.index
211820352.index
2536254238.index
2762175977.index
4046724284.index
895966733.index
3078599867.index
3342968361.index
2248187202.index
1556347411.index
295924907.index
187884256.index
1098396939.index
1227450346.index
963841287.index
4185299755.index
831582100.index
1963772480.index
3382028324.index
1291887591.index
3423505350.index
1465942087.index
1057068640.index
2054802710.index
308647116.index
446672882.index
2714529926.index
1939155489.index
2096210186.index
2194077944.index
2645815108.index
3085376547.index
2463186181.index
333586891.index
617954204.index
4113520195.index
1092131849.index
1119799946.index
58112968.index
1194101339.index
315927901.index
2502334139.index
2028248367.index
807610339.index
3921526040.index
168811866.index
1542711600.index
1965174767.index
3222647217.index
3625297218.index
3623396671.index
3256751602.index
3014441888.index
4171051653.index
1256209732.index
3233848916.index
2612076113.index
3684396847.index
