<?xml version="1.0" encoding="UTF-8"?>
<session version="1.0">
<refactoring comment="Delete resource &apos;BankAPI&apos;" deleteContents="false" description="Delete resource &apos;BankAPI&apos;" element1="/BankAPI" flags="7" id="org.eclipse.ltk.core.refactoring.delete.resources" resources="1" stamp="1613057469676"/>
</session>